simulation/qsim/dsdlab4.msim.vcd
$comment
	File created using the following command:
		vcd file dsdlab4.msim.vcd -direction
$end
$date
	Thu Mar 23 14:56:57 2017
$end
$version
	ModelSim Version 10.1d
$end
$timescale
	1ps
$end
$scope module g58_rules_test_vlg_vec_tst $end
$var reg 6 ! card_to_play [5:0] $end
$var reg 6 " play_pile_top_card [5:0] $end
$var wire 1 # legal_play $end
$var wire 1 $ sampler $end
$scope module i1 $end
$var wire 1 % gnd $end
$var wire 1 & vcc $end
$var wire 1 ' unknown $end
$var tri1 1 ( devclrn $end
$var tri1 1 ) devpor $end
$var tri1 1 * devoe $end
$var wire 1 + inst|top_card_mod13|SUB1|auto_generated|op_1~2_combout $end
$var wire 1 , inst|top_card_mod13|ADD1|auto_generated|op_1~4_combout $end
$var wire 1 - inst|top_card_mod13|ADD1|auto_generated|op_1~5_combout $end
$var wire 1 . inst|Equal1~0_combout $end
$var wire 1 / inst|top_card_mod13|ADD1|auto_generated|op_1~1_combout $end
$var wire 1 0 inst|top_card_mod13|ADD1|auto_generated|op_1~2_combout $end
$var wire 1 1 inst|top_card_mod13|ADD1|auto_generated|op_1~6_combout $end
$var wire 1 2 inst|top_card_mod13|ADD3|auto_generated|op_1~1_combout $end
$var wire 1 3 inst|top_card_mod13|ADD3|auto_generated|op_1~0_combout $end
$var wire 1 4 inst|top_card_mod13|ADD1|auto_generated|op_1~0_combout $end
$var wire 1 5 inst|top_card_mod13|ADD1|auto_generated|op_1~3_combout $end
$var wire 1 6 inst|top_card_mod13|SUB1|auto_generated|op_1~1 $end
$var wire 1 7 inst|top_card_mod13|SUB1|auto_generated|op_1~3 $end
$var wire 1 8 inst|top_card_mod13|SUB1|auto_generated|op_1~5 $end
$var wire 1 9 inst|top_card_mod13|SUB1|auto_generated|op_1~6_combout $end
$var wire 1 : inst|play_card_mod13|ADD1|auto_generated|op_1~1_combout $end
$var wire 1 ; inst|play_card_mod13|ADD1|auto_generated|op_1~0_combout $end
$var wire 1 < inst|play_card_mod13|ADD1|auto_generated|op_1~2_combout $end
$var wire 1 = inst|play_card_mod13|ADD3|auto_generated|op_1~0_combout $end
$var wire 1 > inst|play_card_mod13|ADD1|auto_generated|op_1~4_combout $end
$var wire 1 ? inst|play_card_mod13|SUB1|auto_generated|op_1~1 $end
$var wire 1 @ inst|play_card_mod13|SUB1|auto_generated|op_1~3 $end
$var wire 1 A inst|play_card_mod13|SUB1|auto_generated|op_1~4_combout $end
$var wire 1 B inst|play_card_mod13|ADD3|auto_generated|op_1~1_combout $end
$var wire 1 C inst|play_card_mod13|SUB1|auto_generated|op_1~5 $end
$var wire 1 D inst|play_card_mod13|SUB1|auto_generated|op_1~6_combout $end
$var wire 1 E inst|Equal3~1_combout $end
$var wire 1 F inst|top_card_mod13|SUB1|auto_generated|op_1~0_combout $end
$var wire 1 G inst|top_card_mod13|SUB1|auto_generated|op_1~4_combout $end
$var wire 1 H inst|Equal0~0_combout $end
$var wire 1 I inst|play_card_mod13|SUB1|auto_generated|op_1~0_combout $end
$var wire 1 J inst|play_card_mod13|SUB1|auto_generated|op_1~2_combout $end
$var wire 1 K inst|Equal3~0_combout $end
$var wire 1 L inst|legal_play~0_combout $end
$var wire 1 M inst|play_card_mod13|ADD1|auto_generated|op_1~3_combout $end
$var wire 1 N inst|Equal2~0_combout $end
$var wire 1 O inst|play_card_mod13|ADD1|auto_generated|op_1~5_combout $end
$var wire 1 P inst|legal_play~combout $end
$var wire 1 Q card_to_play~combout [5] $end
$var wire 1 R card_to_play~combout [4] $end
$var wire 1 S card_to_play~combout [3] $end
$var wire 1 T card_to_play~combout [2] $end
$var wire 1 U card_to_play~combout [1] $end
$var wire 1 V card_to_play~combout [0] $end
$var wire 1 W play_pile_top_card~combout [5] $end
$var wire 1 X play_pile_top_card~combout [4] $end
$var wire 1 Y play_pile_top_card~combout [3] $end
$var wire 1 Z play_pile_top_card~combout [2] $end
$var wire 1 [ play_pile_top_card~combout [1] $end
$var wire 1 \ play_pile_top_card~combout [0] $end
$upscope $end
$upscope $end
$enddefinitions $end
#0
$dumpvars
b111 !
b11110 "
x#
x$
0%
1&
x'
1(
1)
1*
x+
x,
x-
x.
x/
x0
x1
x2
x3
x4
x5
x6
x7
x8
x9
x:
x;
x<
x=
x>
x?
x@
xA
xB
xC
xD
xE
xF
xG
xH
xI
xJ
xK
xL
xM
xN
xO
xP
1V
1U
1T
0S
0R
0Q
0\
1[
1Z
1Y
1X
0W
$end
#5000
b111110 "
b101110 "
b101100 "
b101101 "
0$
#5637
0O
#5843
1\
#5853
0X
#5854
1W
#5864
0[
#5884
1?
#5964
1;
#6102
0<
#6512
1:
#6706
0@
#6748
0B
0=
#6750
0M
#6753
0>
#6786
1C
#7750
1A
#7813
0D
#7822
1J
#7855
1I
#8728
1.
#9600
1L
#10000
b101001 "
b1001 "
b11001 "
b11011 "
1$
#10674
1P
#10853
1X
#10854
0W
#10864
0Z
1[
#12726
16
#12751
14
#13812
1,
#15000
b11010 "
b11110 "
b111110 "
b101110 "
b101100 "
0$
#15475
1#
#15843
0\
#15853
0X
#15854
1W
#15864
1Z
0[
#20000
b101101 "
b101111 "
1$
#20843
1\
#20864
1[
#21974
10
02
#21977
13
#22358
01
#22364
1-
#22365
15
#23091
0N
#23439
0F
#24232
0H
#24266
0K
#25000
b100111 "
b100110 "
0$
#25843
0Y
0\
#27098
1/
#27415
07
#27441
0+
#27495
18
#27873
0G
#27953
19
#28748
0E
#30000
b110110 "
b110100 "
b110101 "
1$
#30843
1\
#30853
1X
#30864
0[
#32161
04
#32163
09
#33222
0,
#35000
b10101 "
b11101 "
0$
#35843
1Y
#35854
0W
#37358
11
#37364
0-
#37365
05
#37415
17
#37441
1+
#37495
08
#37873
1G
#37953
19
#38439
1F
#38732
07
#38757
1N
#38760
0+
#38812
18
#39190
0G
#39270
09
#40000
b11100 "
1$
#40843
0\
#41785
0/
#41974
12
#41977
03
#41978
01
#41981
1-
#42161
14
#42163
19
#42679
09
#42841
00
#43019
1G
#43222
1,
#43349
17
#43374
0N
#43377
1+
#43807
0G
#43894
1E
#44218
1K
#44682
0E
#45000
b1100 "
b1110 "
b1111 "
0$
#45843
1\
#45853
0X
#45864
1[
#50000
b10111 !
b10101 !
b10100 !
b1011 "
b11 "
b10 "
1$
#50843
0Y
0\
#50853
0U
#50864
0V
0Z
#50873
1R
#52353
13
#52364
0-
#52365
15
#52415
07
#52441
0+
#52873
1G
#53282
0K
#53395
0G
#53439
0F
#53760
1+
#55000
b100010 "
b100000 "
b101000 "
b101001 "
0$
#55843
1Y
1\
#55854
1W
#55864
0[
#56644
0,
#56774
0I
#56801
0:
#56810
08
#56832
05
#56838
1G
#57268
19
#57410
1K
#57521
03
#57524
02
#57558
1N
#57583
0J
#57596
1:
#57621
1=
#57626
1B
1M
#57647
0.
#57906
1F
#58072
0K
#58229
09
#58491
0N
#58519
0L
#58537
18
#58563
0G
#58623
0A
#58691
1D
#58704
0?
#58731
1I
#58784
1@
#58864
0C
#58865
1H
#58995
19
#59047
0H
#59162
1J
#59242
1A
#59322
0D
#59593
0P
#59651
1K
#59809
1.
#60000
b111001 "
b111101 "
b11101 "
b10101 "
1$
#60681
1L
#60843
0Y
#60853
1X
#60854
0W
#60864
1Z
#61755
1P
#62441
0+
#63282
0K
#65000
b10111 "
b111 "
b11 "
b100011 "
b101011 "
0$
#65843
1Y
#65853
0X
#65854
1W
#65864
0Z
1[
#70000
b101010 "
b101000 "
b1000 "
1$
#70843
0\
#70854
0W
#70864
0[
#75000
b11000 "
b11001 "
b11011 "
b111011 "
0$
#75843
1\
#75853
1X
#75854
1W
#75864
1[
#80000
b110011 "
b100011 "
b100010 "
b10 "
1$
#80843
0Y
0\
#80853
0X
#80854
0W
#82441
1+
#83282
1K
#85000
b1010 "
b11010 "
b11011 "
0$
#85843
1Y
1\
#85853
1X
#90000
b111011 "
1$
#90854
1W
#92353
13
#92355
12
#92365
15
#92497
1/
#93060
09
#93091
1N
#93369
08
#93395
1G
#93439
0F
#93553
10
#93827
19
#94057
05
#94266
0K
#94400
03
#94402
1-
#94783
0N
#95000
b111111 "
b111110 "
0$
#95131
1F
#95416
18
#95442
0G
#95798
0+
#95843
0\
#95864
1Z
#95874
09
#95958
1K
#96639
0K
#96974
02
#96977
13
#96978
11
#96981
0-
#97679
19
#97993
08
#98019
1G
#98377
1+
#98451
09
#99087
1H
#99218
1K
#99254
1E
#100000
b110100 !
b110000 !
b100000 !
b100001 !
b111100 "
b110100 "
b110000 "
1$
#100834
1Q
0T
#100843
0Y
#100864
1V
0Z
0[
#100873
0R
#102754
0F
#103547
0H
#103581
0K
#105000
b10000 "
b10001 "
b10011 "
b11011 "
0$
#105843
1Y
1\
#105854
0W
#105864
1[
#106399
0:
#106403
0;
#106471
0B
#106473
1>
#106748
1?
#106774
0I
#106798
0A
#106828
0@
#107286
1A
#107410
1K
#107434
0E
#107516
1@
#107536
1D
#107621
0=
#107626
1B
0M
#107647
0.
#107974
0A
#108519
0L
#108623
1A
#108691
0D
#108731
1I
#109179
1E
#109367
0K
#109593
0P
#109604
1.
#110000
b11010 "
1$
#110476
1L
#110843
0\
#111550
1P
#111974
12
#111977
03
#111978
01
#111981
1-
#112679
19
#112993
18
#113019
0G
#113374
1N
#113377
0+
#113451
09
#113482
0E
#115000
b1010 "
b1110 "
b101110 "
b100110 "
0$
#115843
0Y
#115853
0X
#115854
1W
#115864
1Z
#120000
b100010 "
1$
#120864
0Z
#121974
02
#121977
13
#121978
11
#121981
0-
#122161
04
#122163
19
#122358
01
#122364
1-
#122365
15
#122462
00
#122497
0/
#122679
09
#122966
05
#122993
08
#123019
1G
#123091
0N
#123305
12
#123309
03
#123413
06
#123439
1F
#123451
19
#123493
17
#123692
1N
#123871
1+
#124010
09
#124014
16
#124040
0F
#124094
07
#124174
18
#124472
0+
#124552
0G
#124632
19
#124813
1E
#125000
b100000 "
b101000 "
0$
#125427
0E
#125843
1Y
#125864
0[
#130000
b101001 "
b111001 "
b11001 "
1$
#130843
1\
#130853
1X
#130854
0W
#132163
09
#132415
17
#132441
1+
#132462
10
#132495
08
#132873
1G
#132953
19
#132966
15
#133305
02
#133309
13
#133692
0N
#134010
09
#134014
06
#134040
1F
#134351
0G
#134472
0+
#135000
b11011 "
b10011 "
b11 "
b100011 "
0$
#135843
0Y
#135853
0X
#135854
1W
#135864
1[
#137726
16
#137751
14
#137754
0F
#138184
1+
#140000
b100111 "
b100101 "
b101101 "
b111101 "
b11101 "
1$
#140843
1Y
#140853
1X
#140854
0W
#140864
1Z
0[
#145000
b11001 "
b10001 "
0$
#145843
0Y
#145864
0Z
#146974
00
12
#146981
0-
#147679
19
#148349
07
#148377
0+
#148807
1G
#150000
b101001 !
b101011 !
b101111 !
b101110 !
b10000 "
b110000 "
b110100 "
1$
#150834
1T
#150843
0\
#150844
1S
#150853
1U
#150854
1W
#150864
0V
1Z
#152161
04
#152163
09
#152966
1E
#155000
b110110 "
b111110 "
b11110 "
b11010 "
0$
#155843
1Y
#155854
0W
#155864
0Z
1[
#156662
1D
#156770
1C
#156774
0I
#156798
0A
#156946
1<
#157149
0.
#157150
0E
#157228
0D
#157361
1;
#157559
0@
#157583
0J
#157592
0B
1=
#157594
1M
#157726
06
#157754
1F
#157806
17
#158017
1A
#158021
0L
#158184
1+
#158264
0G
#158594
0A
#158657
1D
#158672
0?
#158699
1I
#158752
1@
#158832
0C
#159095
0P
#159130
1J
#159210
1A
#159290
0D
#159619
1K
#159777
1.
#160000
b1010 "
b1011 "
b11 "
b100011 "
b100111 "
1$
#160649
1L
#160843
0Y
1\
#160853
0X
#160854
1W
#160864
1Z
#161723
1P
#162098
1/
#162415
07
#162441
0+
#162873
1G
#163282
0K
#163748
1E
#165000
b110111 "
b111111 "
b111011 "
0$
#165843
1Y
#165853
1X
#165864
0Z
#166974
02
#166981
1-
#167679
19
#167726
16
#167754
0F
#168374
1N
#168482
0E
#170000
b111001 "
b111000 "
b11000 "
b1000 "
b0 "
b100 "
1$
#170843
0Y
0\
#170853
0X
#170854
0W
#170864
1Z
0[
#175000
b101 "
b10101 "
b11101 "
0$
#175843
1Y
1\
#175853
1X
#176636
10
#176810
18
#176838
0G
#176974
00
12
#177098
0/
#177140
05
#177268
09
#177415
17
#177441
1+
#177478
15
#177495
08
#177823
0-
#177873
1G
#178748
1E
#179191
07
#179216
0N
#179219
0+
#179271
18
#179649
0G
#179729
19
#180000
b11111 "
b11011 "
1$
#180524
0E
#180864
0Z
1[
#182161
14
#182163
09
#183219
05
#183222
1,
#184099
03
#184101
1-
#184293
1F
#185000
b11010 "
b10010 "
b10000 "
0$
#185141
1G
#185469
17
#185497
1+
#185843
0Y
0\
#185864
0[
#185927
0G
#186016
1E
#186338
1K
#186644
0,
#186802
0E
#186810
08
#186832
15
#186838
1G
#187268
19
#187322
1H
#187521
13
#187523
0-
#187558
1N
#187904
0H
#187906
0F
#188563
0G
#188733
0K
#188891
07
#188916
0N
#188919
0+
#189349
1G
#192161
04
#192163
09
#192726
06
#192754
1F
#192806
17
#192966
1E
#193184
1+
#193264
0G
#194025
1K
#194139
0E
#195000
b0 "
1$
#195853
0X
#200000
b1110 !
b110 !
b10 !
b100 "
b101 "
b111 "
0$
#200834
0Q
0T
#200843
1\
#200844
0S
#200864
1Z
1[
#202353
03
#202355
02
#202365
05
#203060
19
#203395
1G
#203413
16
#203439
0F
#203493
07
#203573
18
#203871
0+
#203951
0G
#204031
09
#204266
0K
#205000
b10010 !
1$
#205873
1R
#206403
0;
#206471
1B
#206473
0>
#206662
1D
#206798
0A
#206838
1G
#207017
0<
#207149
0.
#207441
1+
#207516
0@
#207536
0D
#207542
0J
#207663
0B
0=
#207665
0M
#207754
1F
#207974
1A
#208021
0L
#208530
1N
#208547
1H
#208610
1E
#208639
1C
#208665
0A
#208743
1?
#208770
0I
#209137
1L
#209201
1J
#209301
0E
#210000
b10000 !
b10001 !
b1 !
0$
#210853
0U
#210864
1V
#210873
0R
#215000
b101 !
b111 !
b110 !
b10110 !
1$
#215834
1T
#215853
1U
#215864
0V
#215873
1R
#220000
b110110 !
b110010 !
b110000 !
0$
#220834
1Q
0T
#220853
0U
#222621
1;
1=
#222626
1B
1M
#223491
0N
#223597
0C
#223623
1A
#223704
0?
#223731
1I
#224162
0J
#224259
1E
#224367
1K
#224651
0K
#225000
b111000 !
b111001 !
b101001 !
b101101 !
1$
#225834
1T
#225844
1S
#225864
1V
#225873
0R
#226471
0B
#226473
1>
#227361
0;
#227516
1@
#227536
1D
#227974
0A
#228024
0E
#230000
b101111 !
0$
#230853
1U
#231399
1:
#231403
1;
#231662
0D
#231748
1?
#231774
0I
#231798
1A
#232206
1J
#232209
1<
#232434
1E
#232596
0:
#235000
b100111 !
b100110 !
b110110 !
b110100 !
1$
#235844
0S
#235853
0U
#235864
0V
#235873
1R
#240000
b10100 !
b10000 !
b11000 !
0$
#240834
0Q
0T
#240844
1S
#241748
0?
#241774
1I
#241828
0;
#242206
0J
#242410
1K
#242595
1O
#242596
1:
#242621
1;
#242626
0>
0M
#242695
0K
#243695
1J
1N
#243704
1?
#243731
0I
#243784
0@
#243864
1C
#244162
0J
#244242
0A
#244322
1D
#244878
0E
#245000
b1000 !
b1010 !
b101010 !
b101110 !
b100110 !
1$
#245834
1Q
1T
#245844
0S
#245853
1U
#245873
0R
#250000
b10111 "
b10110 "
b10100 "
b110110 !
b110100 !
0$
#250843
0\
#250853
1X
0U
#250864
0[
#250873
1R
#251662
0D
#255000
b110101 !
b111101 !
b101101 !
b101111 !
1$
#255844
1S
#255853
1U
#255864
1V
#255873
0R
#257353
13
#257355
12
#257365
15
#257441
0+
#257754
0F
#258060
19
#258091
0N
#258274
0H
#258395
0G
#258413
06
#258439
1F
#258493
17
#258573
08
#258581
1K
#258864
0L
#258871
1+
#258951
1G
#259031
09
#259266
0K
#259667
1H
#259938
0P
#260257
1L
#261331
1P
#261662
1D
#261774
1I
#262583
1J
#262595
0O
#262626
1>
1M
#263072
1K
#263695
0J
#263731
0I
#264184
0K
#265000
b111111 !
b111101 !
0$
#265853
0U
#265873
1R
#270000
b11101 !
b11001 !
b1001 !
1$
#270834
0Q
0T
#270873
0R
#272365
0:
#272559
1@
#272583
1J
#272639
0C
#273017
1A
#273097
0D
#273585
1E
#275000
b1 !
b101 !
0$
#275834
1T
#275844
0S
#276471
1B
#276473
0>
#277516
0@
#277536
1D
#277542
0J
1N
#277596
1C
#277974
0A
#278024
0E
#278054
0D
#280000
b100 !
b110 !
b100110 !
b100010 !
1$
#280834
1Q
0T
#280853
1U
#280864
0V
#281662
1D
#281946
0<
#282592
0B
0=
#282594
0M
#283459
0N
#283594
1A
#283657
0D
#283699
1I
#284145
1E
#285000
b100011 !
b100001 !
b1 !
b101 !
0$
#285834
0Q
1T
#285853
0U
#285864
1V
#290000
b1 !
1$
#290834
0T
#295000
b11 !
0$
#295853
1U
#296403
0;
#296798
0A
#297434
0E
#300000
b110100 "
b110000 "
b100000 "
b100001 "
b1011 !
b1010 !
b101010 !
b101110 !
b101100 !
1$
#300834
1Q
1T
#300843
1\
#300844
1S
#300853
0X
0U
#300854
1W
#300864
0Z
0V
#305000
b111100 !
0$
#305873
1R
#306471
1B
#306473
1>
#306662
1D
#306774
0I
#306785
1/
#306798
1A
#306838
0G
#306946
1<
#306974
02
#306981
1-
#307322
0H
#307353
03
#307355
12
#307365
05
#307497
0/
#307516
1@
#307536
0D
#307542
1J
#307592
0B
1=
#307594
1M
#307726
16
#307754
0F
#307806
07
#307912
0L
#307974
0A
#308091
1N
#308349
17
#308439
1F
#308459
0N
#308568
0C
#308581
1K
#308594
1A
#308610
1E
#308672
0?
#308699
1I
#308807
1G
#308986
0P
#309130
0J
#309291
1H
#309441
1L
#309619
0K
#310000
b110100 !
b110101 !
b110001 !
b110011 !
1$
#310515
1P
#310834
0T
#310844
0S
#310853
1U
#310864
1V
#312595
1O
#312596
1:
#312621
1;
#312626
0>
0M
#313695
1J
#313704
1?
#313731
0I
#313784
0@
#313864
1C
#314162
0J
#314242
0A
#314322
1D
#314878
0E
#315000
b100011 !
b101011 !
0$
#315844
1S
#315873
0R
#316399
0:
#316403
0;
#316770
0C
#316774
1I
#316798
1A
#317228
0D
#317361
1;
#317583
1J
#317716
1E
#318072
1K
#318419
1.
#320000
b101010 !
b111010 !
1$
#320864
0V
#320873
1R
#325000
b11010 !
b1010 !
0$
#325834
0Q
#325873
0R
#326774
0I
#327410
0K
#327647
0.
#330000
b1110 !
b11110 !
1$
#330834
1T
#330873
1R
#331469
0=
#331471
1B
0O
#331473
1>
#332445
1C
#332471
0A
#332542
0J
1N
#333107
0E
#335000
b11100 !
b11101 !
b111101 !
b111001 !
b101001 !
0$
#335834
1Q
0T
#335853
0U
#335864
1V
#335873
0R
#340000
b100001 !
b100011 !
b100010 !
b100110 !
1$
#340834
1T
#340844
0S
#340853
1U
#340864
0V
#341469
1=
#341471
0B
1O
#341473
0>
#342445
0C
#342471
1A
#342542
1J
0N
#342595
0O
#342621
0;
#342626
1>
1M
#343107
1E
#343695
0J
#343704
0?
#343731
1I
#343784
1@
#344162
1J
#344242
0A
#344651
1K
#344878
0E
#345000
b110110 !
b110111 !
b110011 !
0$
#345834
0T
#345864
1V
#345873
1R
#346662
1D
#346946
0<
#347592
1B
0=
#347594
0M
#348459
1N
#348594
1A
#348657
0D
#348672
1?
#348699
0I
#348752
0@
#348832
1C
#349130
0J
#349145
1E
#349210
0A
#349290
1D
#349335
0K
#349846
0E
#350000
b101001 "
b101011 "
b101111 "
b101110 "
b10011 !
b10010 !
1$
#350834
0Q
#350843
1Y
0\
#350864
1Z
1[
0V
#352621
1;
1=
#352626
0B
1M
#353491
0N
#353597
0C
#353623
1A
#353704
0?
#353731
1I
#353784
1@
#354162
1J
#354242
0A
#354651
1K
#355000
b10000 !
b0 !
b100 !
b100100 !
b100101 !
0$
#355834
1Q
1T
#355853
0U
#355864
1V
#355873
0R
#356810
18
#356838
0G
#357098
1/
#357161
14
#357322
0H
#357415
07
#357441
0+
#357462
10
#357751
0/
#357754
0F
#357873
1G
#357912
0L
#358219
15
#358222
1,
#358282
0K
#358305
02
#358309
13
#358945
1N
#358986
0P
#359010
19
#359267
06
#359293
1F
#359347
17
#359427
08
#359725
1+
#359737
1P
#359885
09
#360000
b101101 !
b101111 !
b111111 !
b11111 !
1$
#360521
1H
#360566
1K
#360834
0Q
#360844
1S
#360853
1U
#360873
1R
#361111
1L
#361399
1:
#361748
1?
#361774
0I
#361798
1A
#361828
0@
#361908
1C
#362206
0J
#362209
1<
#362286
0A
#362366
0D
#362410
0K
#362854
0>
#362857
0M
1O
#363722
0N
#363923
1J
#363962
1I
#364598
1K
#365000
b11101 !
b111101 !
0$
#365834
1Q
#365853
0U
#366662
1D
#370000
b111001 !
b111000 !
b110000 !
b10000 !
1$
#370834
0Q
0T
#370844
0S
#370864
0V
#372583
0J
#373072
0K
#375000
b10010 !
b10011 !
b11011 !
b111011 !
0$
#375834
1Q
#375844
1S
#375853
1U
#375864
1V
#376399
0:
#376403
0;
#376770
0C
#376798
1A
#377228
0D
#377716
1E
#380000
b110011 !
b10011 !
1$
#380834
0Q
#380844
0S
#382361
1;
#382583
1J
#383072
1K
#383419
1.
#385000
b10001 !
b10000 !
b11000 !
0$
#385844
1S
#385853
0U
#385864
0V
#386469
0=
#386471
1B
0O
#386473
1>
#387445
1C
#387471
0A
#387542
0J
#388031
0K
#388106
0.
#388107
0E
#390000
b11100 !
b10100 !
1$
#390834
1T
#390844
0S
#391774
0I
#392361
0;
#392559
1@
#392583
1J
#392639
0C
#392975
0<
#393017
1A
#393097
1D
#393620
0>
#393621
1=
#393623
1M
#394623
0A
#394663
0@
#394689
0J
#394701
0?
#394728
1I
#394781
1@
#395000
b100 !
b100100 !
b100000 !
0$
#395159
1J
#395648
1K
#395834
1Q
0T
#395873
0R
#396662
0D
#400000
b1110 "
b110 "
b100 "
b0 "
b0 !
1$
#400834
0Q
#400843
0Y
#400854
0W
#400864
0Z
0[
#402621
0=
#402626
0B
0M
#403623
1A
#403691
1D
#403704
1?
#403731
0I
#403784
0@
#403864
1C
#404162
0J
#404242
0A
#404322
0D
#404367
0K
#405000
b1 "
b1 !
0$
#405843
1\
#405864
1V
#406644
0,
#406838
0G
#406974
00
12
#406981
0-
#407161
04
#407163
19
#407322
0H
#407441
0+
#407478
05
#407679
09
#407817
02
#407821
03
#407912
0L
#408204
1N
#408377
1+
#408482
1E
#408522
19
#408526
16
#408552
0F
#408606
07
#408686
18
#408984
0+
#409144
09
#409325
0E
#409825
1K
#409947
1E
#410000
b11 !
b11 "
b10 "
b10 !
1$
#410778
1L
#410843
0\
#410853
1U
#410864
0V
1[
#415000
b11 "
b11 !
0$
#415843
1\
#415864
1V
#417441
1+
#417583
1J
#420000
b111 !
b111 "
b101 !
b101 "
b100 "
b100 !
1$
#420834
1T
#420843
0\
#420853
0U
#420864
0V
1Z
0[
#425000
b101 "
b101 !
0$
#425843
1\
#425864
1V
#426403
1;
#426798
1A
#426838
1G
#427361
0;
#427441
0+
#427583
0J
#430000
b111 !
b111 "
b110 "
b110 !
1$
#430843
0\
#430853
1U
#430864
0V
1[
#435000
b111 "
b111 !
0$
#435843
1\
#435864
1V
#437361
1;
#437441
1+
#437583
1J
#440000
b1111 !
b1111 "
b1011 !
b1011 "
b1001 !
b1001 "
b1000 "
b1000 !
1$
#440834
0T
#440843
1Y
0\
#440844
1S
#440853
0U
#440864
0V
0Z
0[
#445000
b1001 "
b1001 !
0$
#445843
1\
#445864
1V
#446403
0;
#446662
1D
#446798
0A
#446838
0G
#447150
0E
#447163
19
#447441
0+
#447583
0J
#447966
1E
#447981
0L
#448797
1L
#450000
b1011 !
b1011 "
b1010 "
b1010 !
1$
#450843
0\
#450853
1U
#450864
0V
1[
#455000
b1011 "
b1011 !
0$
#455843
1\
#455864
1V
#457098
14
#457441
1+
#457583
1J
#460000
b1111 !
b1111 "
b1101 !
b1101 "
b1100 "
b1100 !
1$
#460834
1T
#460843
0\
#460853
0U
#460864
0V
1Z
0[
#465000
b1101 "
b1101 !
0$
#465843
1\
#465864
1V
#466403
1;
#466644
1,
#466798
1A
#466832
15
#466838
1G
#467017
1<
#467098
04
#467361
0;
#467441
0+
#467521
13
#467524
12
#467558
0N
#467583
0J
#467663
1B
1=
#467665
1M
#467880
06
#467906
1F
#467960
17
#467975
0<
#468156
05
#468159
0,
#468229
09
#468338
1+
#468530
1N
#468537
08
#468621
0B
0=
#468623
0M
#468665
0A
#468728
0D
#468733
0K
#468743
0?
#468770
1I
#468823
1@
#468882
0N
#468903
0C
#468995
19
#469032
0E
#469036
03
#469039
02
#469171
1H
#469198
0L
#469201
1J
#469204
16
#469230
0F
#469284
07
#469364
18
#469488
1N
#469597
1C
#469631
0H
#469662
0+
#469701
1?
#469728
0I
#469761
1L
#469781
0@
#470000
b1111 !
b1111 "
b1110 "
b1110 !
1$
#470055
1D
#470159
0J
#470221
0L
#470239
1A
#470648
1K
#470843
0\
#470853
1U
#470864
0V
1[
#470875
1E
#471706
1L
#475000
b1111 "
b1111 !
0$
#475843
1\
#475864
1V
#477098
14
#477361
1;
#477441
1+
#477583
1J
#477975
1<
#478156
15
#478159
1,
#478621
1B
1=
#478623
1M
#478882
0N
#479036
13
#479039
12
#479204
06
#479230
1F
#479488
1N
#479623
0A
#479662
0+
#479686
0D
#479701
0?
#479728
1I
#479744
09
#480000
b11111 "
b11111 !
b10111 !
b10111 "
b10011 !
b10011 "
b10001 !
b10001 "
b10000 "
b10000 !
1$
#480057
0K
#480078
0G
#480159
0J
#480259
0E
#480522
0L
#480648
1K
#480834
0T
#480843
0Y
0\
#480844
0S
#480853
1X
0U
#480864
0Z
0[
0V
#480873
1R
#480953
1E
#481784
1L
#485000
b10001 "
b10001 !
0$
#485843
1\
#485864
1V
#486403
0;
#486644
0,
#486662
1D
#486770
0C
#486798
1A
#486810
08
#486832
05
#486838
1G
#487017
0<
#487150
0E
#487161
04
#487228
0D
#487365
15
#487415
17
#487441
1+
#487559
1@
#487583
1J
#487716
1E
#487873
0G
#487981
0L
#488017
0A
#488547
1L
#490000
b10011 !
b10011 "
b10010 "
b10010 !
1$
#490843
0\
#490853
1U
#490864
0V
1[
#495000
b10011 "
b10011 !
0$
#495843
1\
#495864
1V
#497098
1/
#497361
1;
#497415
07
#497441
0+
#497559
0@
#497583
0J
#497873
1G
#498017
1A
#500000
b10111 !
b10111 "
b10101 !
b10101 "
b10100 "
b10100 !
1$
#500834
1T
#500843
0\
#500853
0U
#500864
0V
1Z
0[
#505000
b10101 "
b10101 !
0$
#505843
1\
#505864
1V
#506399
1:
#506770
1C
#506798
0A
#506810
18
#506838
0G
#507098
0/
#507228
1D
#507268
19
#507415
17
#507441
1+
#507495
08
#507559
1@
#507583
1J
#507639
0C
#507873
1G
#507953
09
#508017
1A
#508097
0D
#508584
1.
#508589
1H
#510000
b10111 !
b10111 "
b10110 "
b10110 !
1$
#510843
0\
#510853
1U
#510864
0V
1[
#515000
b10111 "
b10111 !
0$
#515843
1\
#515864
1V
#517098
1/
#517415
07
#517441
0+
#517495
18
#517559
0@
#517583
0J
#517639
1C
#517873
0G
#517953
19
#518017
0A
#518097
1D
#518274
0H
#518419
0.
#520000
b11111 !
b11111 "
b11011 !
b11011 "
b11001 !
b11001 "
b11000 "
b11000 !
1$
#520834
0T
#520843
1Y
0\
#520844
1S
#520853
0U
#520864
0V
0Z
0[
#525000
b11001 "
b11001 !
0$
#525843
1\
#525864
1V
#526399
0:
#526662
0D
#526770
0C
#526798
1A
#526810
08
#526838
1G
#526946
1<
#527098
0/
#527150
0E
#527161
14
#527228
1D
#527361
0;
#527415
17
#527441
1+
#527462
10
#527559
1@
#527583
1J
#527591
1>
#527592
0=
#527594
0M
#527716
1E
#527873
0G
#527966
05
#527975
0<
#527981
0L
#528017
0A
#528154
00
#528309
03
#528311
1-
#528459
0N
#528547
1L
#528594
1A
#528620
0>
#528621
1=
#528623
1M
#528658
15
#528660
0J
#528672
1?
#528699
0I
#529001
13
#529003
0-
#529014
16
#529040
0F
#529094
07
#529130
1J
#529149
0K
#529174
18
#529230
0E
#529384
1N
#529472
0+
#529614
0L
#529619
1K
#529623
0A
#529632
09
#529663
0@
#529689
0J
#529701
0?
#529706
06
#529728
1I
#529732
1F
#529781
1@
#529786
17
#530000
b11011 !
b11011 "
b11010 "
b11010 !
1$
#530017
08
#530159
1J
#530164
1+
#530475
19
#530843
0\
#530853
1U
#530864
0V
1[
#531278
1E
#532109
1L
#535000
b11011 "
b11011 !
0$
#535843
1\
#535864
1V
#537098
1/
#537361
1;
#537415
07
#537441
0+
#537559
0@
#537583
0J
#537873
1G
#537975
1<
#538017
1A
#538154
10
#538620
1>
#538621
0=
#538623
0M
#538658
05
#539001
03
#539003
1-
#539488
0N
#539597
1C
#539623
0A
#539663
1@
#539689
1J
#539701
1?
#539706
16
#539728
0I
#539732
0F
#539743
0C
#539781
0@
#539861
1C
#540000
b11111 !
b11111 "
b11101 !
b11101 "
b11100 "
b11100 !
1$
#540017
18
#540043
0G
#540159
0J
#540178
0K
#540259
0E
#540319
0D
#540396
1N
#540475
09
#540643
0L
#540648
1K
#540834
1T
#540843
0\
#540853
0U
#540864
0V
1Z
0[
#541278
1E
#542109
1L
#545000
b11101 "
b11101 !
0$
#545843
1\
#545864
1V
#546399
1:
#546644
1,
#546798
1A
#546838
1G
#547098
0/
#547415
17
#547441
1+
#547559
1@
#547583
1J
#547873
0G
#548017
0A
#548154
00
#550000
b11111 !
b11111 "
b11110 "
b11110 !
1$
#550843
0\
#550853
1U
#550864
0V
1[
